…
```r
dat_yld <- read_csv("dat-white-mold-br.csv") %>% 
  group_by(study)
```

Here is the structure of the dataset and the first variables of a total of 17 variables Download the original [dat-white-mold-br.csv](dat-white-mold-br.csv) file.


```r
dat_yld
```

```
## Source: local data frame [382 x 17]
## Groups: study [35]
## 
##    study treat    season harvest_year  location state country elevation
##    <int> <int>     <chr>        <int>     <chr> <chr>   <chr>     <int>
## 1      9     1 2009/2010         2010 Agua Fria    GO  Brazil       891
## 2      9     2 2009/2010         2010 Agua Fria    GO  Brazil       891
## 3      9     3 2009/2010         2010 Agua Fria    GO  Brazil       891
## 4      9     4 2009/2010         2010 Agua Fria    GO  Brazil       891
## 5      9     5 2009/2010         2010 Agua Fria    GO  Brazil       891
## 6      9     6 2009/2010         2010 Agua Fria    GO  Brazil       891
## 7      9     7 2009/2010         2010 Agua Fria    GO  Brazil       891
## 8      9     8 2009/2010         2010 Agua Fria    GO  Brazil       891
## 9      9     9 2009/2010         2010 Agua Fria    GO  Brazil       891
## 10     9    10 2009/2010         2010 Agua Fria    GO  Brazil       891
## # ... with 372 more rows, and 9 more variables: region <chr>,
## #   elevation_class <chr>, inc_check <dbl>, inc_class <chr>,
## #   yld_check <dbl>, yld_class <chr>, inc <dbl>, scl <int>, yld <dbl>
```
…
